Walkthrough of plasmut package use for matched white blood cell and cell-free DNA mutants sequenced
…
library(plasmut)

library(tidyverse)
library(readxl)

Read in the data and convert columns to their natural types.

extdir <- system.file("extdata", package="plasmut")
fpath <- file.path(extdir, "cairo5-matched-sequencing.csv")

df <- read_csv(fpath, show_col_types=FALSE) %>% type.convert(as.is=TRUE)

df

## # A tibble: 166 × 16
##    Patient source Date       Timepoint Gene   AAChange   `Nucleotide Position …`
##      <int> <chr>  <chr>      <chr>     <chr>  <chr>      <chr>                  
##  1      12 plasma 2015-04-08 Baseline  HRAS   Y96F       chr11_533769-533769_T_A
##  2      12 plasma 2015-04-08 Baseline  APC    E1306*     chr5_112175207-1121752…
##  3      12 plasma 2015-04-08 Baseline  TP53   R196*      chr17_7578263-7578263_…
##  4      13 plasma 2015-04-09 Baseline  FGFR2  428V>E     chr10.fa:123274635-123…
##  5      13 plasma 2015-04-09 Baseline  PDGFRA 810A>D     chr4.fa:55151643-55151…
##  6      13 plasma 2015-04-09 Baseline  PIK3CA 104P>R     chr3.fa:178916924-1789…
##  7      13 plasma 2015-04-09 Baseline  APC    2748V>E    chr5.fa:112179534-1121…
##  8      13 plasma 2015-04-09 Baseline  TP53   G245S      chr17.fa:7577548-75775…
##  9      13 plasma 2015-04-09 Baseline  HRAS   138G>V     chr11.fa:533490-533490…
## 10      13 plasma 2015-04-09 Baseline  APC    S1335Kfs*7 chr5.fa:112175294-1121…
## # … with 156 more rows, and 9 more variables: `cfDNA distinct reads` <int>,
## #   `cfDNA distinct mutant reads` <int>, `wbc distinct reads` <int>,
## #   `wbc distinct mutant reads` <int>, type <chr>,
## #   `tumor distinct reads` <chr>, `tumor distinct mutant reads` <chr>,
## #   `mutant tags` <chr>, g_include <chr>
…
